exercise-11
…
permuted.F <- d %>% 
  specify(logMass ~ Trophic.Level) %>% 
  hypothesize(null = "independence") %>% 
  generate(reps = 1000, type = "permute") %>% 
  calculate(stat = "F")

Warning: Removed 5 rows containing missing values.

permuted.F

Response: logMass (numeric)
Explanatory: Trophic.Level (factor)
Null Hypothesis: independence
# A tibble: 1,000 × 2
   replicate  stat
       <int> <dbl>
 1         1 0.880
 2         2 1.26 
 3         3 2.45 
 4         4 1.04 
 5         5 0.616
 6         6 0.573
 7         7 0.107
 8         8 0.688
 9         9 0.496
10        10 0.827
# ℹ 990 more rows
…
